[
  {"id": 1, "name": "Платье-миди с расклешенной юбкой", "code":"82039-11", "price": "2450", "count": 2, "image":"../assets/images/good.jpg"},
  {"id": 2, "name": "Туфли женские украшенные кружевными вставками", "code":"81111-11", "price": "2450", "count": 10, "image":"../assets/images/good.jpg"},
  {"id": 3, "name": "Туфли", "code":"45666-12", "price": "2450", "count": 5, "image":"../assets/images/good.jpg"}
]
